{
    "id": "M",
    "stac_version": "1.0.0-beta.2",
    "description": "M",
    "links": [
        {
            "rel": "root",
            "href": "https://terradue-rtd.gitlab.io/sentinel-s2-l2a-cogs/48/M/catalog.json",
            "type": "application/json"
        },
        {
            "rel": "self",
            "href": "https://terradue-rtd.gitlab.io/sentinel-s2-l2a-cogs/48/M/catalog.json",
            "type": "application/json"
        },
        {
            "rel": "parent",
            "href": "https://terradue-rtd.gitlab.io/sentinel-s2-l2a-cogs/48/catalog.json"
        },
        {
            "rel": "child",
            "href": "https://terradue-rtd.gitlab.io/sentinel-s2-l2a-cogs/48/M/YT/catalog.json"
        }
    ]
}