{
    "type": "Feature",
    "stac_version": "1.0.0-beta.2",
    "id": "S2B_MSIL2A_20200713T000239_N0214_R030_T56HKF_20200713T020242",
    "properties": {
        "datetime": "2020-07-13T00:06:42Z",
        "platform": "sentinel-2b",
        "constellation": "sentinel-2",
        "instruments": [
            "msi"
        ],
        "gsd": 10,
        "view:off_nadir": 0,
        "proj:epsg": 32756,
        "sentinel:utm_zone": 56,
        "sentinel:latitude_band": "H",
        "sentinel:grid_square": "KF",
        "sentinel:sequence": "0",
        "sentinel:product_id": "S2B_MSIL2A_20200713T000239_N0214_R030_T56HKF_20200713T020242",
        "sentinel:data_coverage": 100,
        "eo:cloud_cover": null,
        "sentinel:valid_cloud_cover": true,
        "created": "2020-08-18T04:18:27.361Z",
        "updated": "2020-08-18T04:18:27.361Z",
        "eo:bands": [
            {
                "name": "B01",
                "common_name": "coastal",
                "description": "B01"
            },
            {
                "name": "B02",
                "common_name": "blue",
                "description": "B02"
            },
            {
                "name": "B03",
                "common_name": "green",
                "description": "B03"
            },
            {
                "name": "B04",
                "common_name": "red",
                "description": "B04"
            },
            {
                "name": "B05",
                "description": "B05"
            },
            {
                "name": "B06",
                "description": "B06"
            },
            {
                "name": "B07",
                "description": "B07"
            },
            {
                "name": "B08",
                "common_name": "nir",
                "description": "B08"
            },
            {
                "name": "B8A",
                "description": "B8A"
            },
            {
                "name": "B09",
                "description": "B09"
            },
            {
                "name": "B11",
                "common_name": "swir16",
                "description": "B11"
            },
            {
                "name": "B12",
                "common_name": "swir22",
                "description": "B12"
            },
            {
                "name": "AOT",
                "description": "AOT"
            },
            {
                "name": "SCL",
                "description": "SCL"
            },
            {
                "name": "WVP",
                "description": "WVP"
            }
        ]
    },
    "geometry": {
        "type": "Polygon",
        "coordinates": [
            [
                [
                    150.8838309498826,
                    -36.21434659159522
                ],
                [
                    149.66387581744056,
                    -36.186538485100584
                ],
                [
                    149.70482705890785,
                    -35.198217023260845
                ],
                [
                    150.90984161521953,
                    -35.22503651897755
                ],
                [
                    150.8838309498826,
                    -36.21434659159522
                ]
            ]
        ]
    },
    "links": [],
    "assets": {
        "thumbnail": {
            "href": "https://roda.sentinel-hub.com/sentinel-s2-l1c/tiles/56/H/KF/2020/7/13/0/preview.jpg",
            "type": "image/png",
            "title": "Thumbnail"
        },
        "overview": {
            "href": "https://sentinel-cogs.s3.us-west-2.amazonaws.com/sentinel-s2-l2a-cogs/56/H/KF/2020/7/S2B_56HKF_20200713_0_L2A/L2A_PVI.tif",
            "type": "image/tiff; application=geotiff; profile=cloud-optimized",
            "title": "True color image",
            "proj:shape": [
                343,
                343
            ],
            "proj:transform": [
                320,
                0,
                199980,
                0,
                -320,
                6100000,
                0,
                0,
                1
            ]
        },
        "info": {
            "href": "https://roda.sentinel-hub.com/sentinel-s2-l2a/tiles/56/H/KF/2020/7/13/0/tileInfo.json",
            "type": "application/json",
            "title": "Original JSON metadata"
        },
        "metadata": {
            "href": "https://roda.sentinel-hub.com/sentinel-s2-l2a/tiles/56/H/KF/2020/7/13/0/metadata.xml",
            "type": "application/xml",
            "title": "Original XML metadata"
        },
        "visual": {
            "href": "https://sentinel-cogs.s3.us-west-2.amazonaws.com/sentinel-s2-l2a-cogs/56/H/KF/2020/7/S2B_56HKF_20200713_0_L2A/TCI.tif",
            "type": "image/tiff; application=geotiff; profile=cloud-optimized",
            "title": "True color image",
            "proj:shape": [
                10980,
                10980
            ],
            "proj:transform": [
                10,
                0,
                199980,
                0,
                -10,
                6100000,
                0,
                0,
                1
            ]
        },
        "B01": {
            "href": "https://sentinel-cogs.s3.us-west-2.amazonaws.com/sentinel-s2-l2a-cogs/56/H/KF/2020/7/S2B_56HKF_20200713_0_L2A/B01.tif",
            "type": "image/tiff; application=geotiff; profile=cloud-optimized",
            "title": "Band 1 (coastal)",
            "proj:shape": [
                1830,
                1830
            ],
            "proj:transform": [
                60,
                0,
                199980,
                0,
                -60,
                6100000,
                0,
                0,
                1
            ],
            "eo:bands": [
                {
                    "name": "B01",
                    "common_name": "coastal",
                    "description": "B01"
                }
            ]
        },
        "B02": {
            "href": "https://sentinel-cogs.s3.us-west-2.amazonaws.com/sentinel-s2-l2a-cogs/56/H/KF/2020/7/S2B_56HKF_20200713_0_L2A/B02.tif",
            "type": "image/tiff; application=geotiff; profile=cloud-optimized",
            "title": "Band 2 (blue)",
            "proj:shape": [
                10980,
                10980
            ],
            "proj:transform": [
                10,
                0,
                199980,
                0,
                -10,
                6100000,
                0,
                0,
                1
            ],
            "eo:bands": [
                {
                    "name": "B02",
                    "common_name": "blue",
                    "description": "B02"
                }
            ]
        },
        "B03": {
            "href": "https://sentinel-cogs.s3.us-west-2.amazonaws.com/sentinel-s2-l2a-cogs/56/H/KF/2020/7/S2B_56HKF_20200713_0_L2A/B03.tif",
            "type": "image/tiff; application=geotiff; profile=cloud-optimized",
            "title": "Band 3 (green)",
            "proj:shape": [
                10980,
                10980
            ],
            "proj:transform": [
                10,
                0,
                199980,
                0,
                -10,
                6100000,
                0,
                0,
                1
            ],
            "eo:bands": [
                {
                    "name": "B03",
                    "common_name": "green",
                    "description": "B03"
                }
            ]
        },
        "B04": {
            "href": "https://sentinel-cogs.s3.us-west-2.amazonaws.com/sentinel-s2-l2a-cogs/56/H/KF/2020/7/S2B_56HKF_20200713_0_L2A/B04.tif",
            "type": "image/tiff; application=geotiff; profile=cloud-optimized",
            "title": "Band 4 (red)",
            "proj:shape": [
                10980,
                10980
            ],
            "proj:transform": [
                10,
                0,
                199980,
                0,
                -10,
                6100000,
                0,
                0,
                1
            ],
            "eo:bands": [
                {
                    "name": "B04",
                    "common_name": "red",
                    "description": "B04"
                }
            ]
        },
        "B05": {
            "href": "https://sentinel-cogs.s3.us-west-2.amazonaws.com/sentinel-s2-l2a-cogs/56/H/KF/2020/7/S2B_56HKF_20200713_0_L2A/B05.tif",
            "type": "image/tiff; application=geotiff; profile=cloud-optimized",
            "title": "Band 5",
            "proj:shape": [
                5490,
                5490
            ],
            "proj:transform": [
                20,
                0,
                199980,
                0,
                -20,
                6100000,
                0,
                0,
                1
            ],
            "eo:bands": [
                {
                    "name": "B05",
                    "description": "B05"
                }
            ]
        },
        "B06": {
            "href": "https://sentinel-cogs.s3.us-west-2.amazonaws.com/sentinel-s2-l2a-cogs/56/H/KF/2020/7/S2B_56HKF_20200713_0_L2A/B06.tif",
            "type": "image/tiff; application=geotiff; profile=cloud-optimized",
            "title": "Band 6",
            "proj:shape": [
                5490,
                5490
            ],
            "proj:transform": [
                20,
                0,
                199980,
                0,
                -20,
                6100000,
                0,
                0,
                1
            ],
            "eo:bands": [
                {
                    "name": "B06",
                    "description": "B06"
                }
            ]
        },
        "B07": {
            "href": "https://sentinel-cogs.s3.us-west-2.amazonaws.com/sentinel-s2-l2a-cogs/56/H/KF/2020/7/S2B_56HKF_20200713_0_L2A/B07.tif",
            "type": "image/tiff; application=geotiff; profile=cloud-optimized",
            "title": "Band 7",
            "proj:shape": [
                5490,
                5490
            ],
            "proj:transform": [
                20,
                0,
                199980,
                0,
                -20,
                6100000,
                0,
                0,
                1
            ],
            "eo:bands": [
                {
                    "name": "B07",
                    "description": "B07"
                }
            ]
        },
        "B08": {
            "href": "https://sentinel-cogs.s3.us-west-2.amazonaws.com/sentinel-s2-l2a-cogs/56/H/KF/2020/7/S2B_56HKF_20200713_0_L2A/B08.tif",
            "type": "image/tiff; application=geotiff; profile=cloud-optimized",
            "title": "Band 8 (nir)",
            "proj:shape": [
                10980,
                10980
            ],
            "proj:transform": [
                10,
                0,
                199980,
                0,
                -10,
                6100000,
                0,
                0,
                1
            ],
            "eo:bands": [
                {
                    "name": "B08",
                    "common_name": "nir",
                    "description": "B08"
                }
            ]
        },
        "B8A": {
            "href": "https://sentinel-cogs.s3.us-west-2.amazonaws.com/sentinel-s2-l2a-cogs/56/H/KF/2020/7/S2B_56HKF_20200713_0_L2A/B8A.tif",
            "type": "image/tiff; application=geotiff; profile=cloud-optimized",
            "title": "Band 8A",
            "proj:shape": [
                5490,
                5490
            ],
            "proj:transform": [
                20,
                0,
                199980,
                0,
                -20,
                6100000,
                0,
                0,
                1
            ],
            "eo:bands": [
                {
                    "name": "B8A",
                    "description": "B8A"
                }
            ]
        },
        "B09": {
            "href": "https://sentinel-cogs.s3.us-west-2.amazonaws.com/sentinel-s2-l2a-cogs/56/H/KF/2020/7/S2B_56HKF_20200713_0_L2A/B09.tif",
            "type": "image/tiff; application=geotiff; profile=cloud-optimized",
            "title": "Band 9",
            "proj:shape": [
                1830,
                1830
            ],
            "proj:transform": [
                60,
                0,
                199980,
                0,
                -60,
                6100000,
                0,
                0,
                1
            ],
            "eo:bands": [
                {
                    "name": "B09",
                    "description": "B09"
                }
            ]
        },
        "B11": {
            "href": "https://sentinel-cogs.s3.us-west-2.amazonaws.com/sentinel-s2-l2a-cogs/56/H/KF/2020/7/S2B_56HKF_20200713_0_L2A/B11.tif",
            "type": "image/tiff; application=geotiff; profile=cloud-optimized",
            "title": "Band 11 (swir16)",
            "proj:shape": [
                5490,
                5490
            ],
            "proj:transform": [
                20,
                0,
                199980,
                0,
                -20,
                6100000,
                0,
                0,
                1
            ],
            "eo:bands": [
                {
                    "name": "B11",
                    "common_name": "swir16",
                    "description": "B11"
                }
            ]
        },
        "B12": {
            "href": "https://sentinel-cogs.s3.us-west-2.amazonaws.com/sentinel-s2-l2a-cogs/56/H/KF/2020/7/S2B_56HKF_20200713_0_L2A/B12.tif",
            "type": "image/tiff; application=geotiff; profile=cloud-optimized",
            "title": "Band 12 (swir22)",
            "proj:shape": [
                5490,
                5490
            ],
            "proj:transform": [
                20,
                0,
                199980,
                0,
                -20,
                6100000,
                0,
                0,
                1
            ],
            "eo:bands": [
                {
                    "name": "B12",
                    "common_name": "swir22",
                    "description": "B12"
                }
            ]
        },
        "AOT": {
            "href": "https://sentinel-cogs.s3.us-west-2.amazonaws.com/sentinel-s2-l2a-cogs/56/H/KF/2020/7/S2B_56HKF_20200713_0_L2A/AOT.tif",
            "type": "image/tiff; application=geotiff; profile=cloud-optimized",
            "title": "Aerosol Optical Thickness (AOT)",
            "proj:shape": [
                1830,
                1830
            ],
            "proj:transform": [
                60,
                0,
                199980,
                0,
                -60,
                6100000,
                0,
                0,
                1
            ],
            "eo:bands": [
                {
                    "name": "AOT",
                    "description": "AOT"
                }
            ]
        },
        "WVP": {
            "href": "https://sentinel-cogs.s3.us-west-2.amazonaws.com/sentinel-s2-l2a-cogs/56/H/KF/2020/7/S2B_56HKF_20200713_0_L2A/WVP.tif",
            "type": "image/tiff; application=geotiff; profile=cloud-optimized",
            "title": "Water Vapour (WVP)",
            "proj:shape": [
                10980,
                10980
            ],
            "proj:transform": [
                10,
                0,
                199980,
                0,
                -10,
                6100000,
                0,
                0,
                1
            ],
            "eo:bands": [
                {
                    "name": "WVP",
                    "description": "WVP"
                }
            ]
        },
        "SCL": {
            "href": "https://sentinel-cogs.s3.us-west-2.amazonaws.com/sentinel-s2-l2a-cogs/56/H/KF/2020/7/S2B_56HKF_20200713_0_L2A/SCL.tif",
            "type": "image/tiff; application=geotiff; profile=cloud-optimized",
            "title": "Scene Classification Map (SCL)",
            "proj:shape": [
                5490,
                5490
            ],
            "proj:transform": [
                20,
                0,
                199980,
                0,
                -20,
                6100000,
                0,
                0,
                1
            ],
            "eo:bands": [
                {
                    "name": "SCL",
                    "description": "SCL"
                }
            ]
        }
    },
    "bbox": [
        149.66387581744056,
        -36.21434659159522,
        150.90984161521953,
        -35.198217023260845
    ],
    "stac_extensions": [
        "eo",
        "view",
        "proj"
    ]
}